…
# Add Player names please
career <- Master %>% 
  as_tibble() %>% 
  select(playerID, nameFirst, nameLast) %>% 
  unite(name, nameFirst, nameLast) %>% 
  inner_join(career, by = "playerID") %>% 
  select(-playerID)
career
```

    ## # A tibble: 9,670 x 4
    ##    name                  H    AB average
    ##    <chr>             <int> <int>   <dbl>
    ##  1 Hank_Aaron         3771 12364  0.305 
    ##  2 Tommie_Aaron        216   944  0.229 
    ##  3 Andy_Abad             2    21  0.0952
    ##  4 John_Abadie          11    49  0.224 
    ##  5 Ed_Abbaticchio      772  3044  0.254 
    ##  6 Fred_Abbott         107   513  0.209 
    ##  7 Jeff_Abbott         157   596  0.263 
    ##  8 Kurt_Abbott         523  2044  0.256 
    ##  9 Ody_Abbott           13    70  0.186 
    ## 10 Frank_Abercrombie     0     4  0     
    ## # … with 9,660 more rows
…
``` r
#library(stats4)
career_filtered <- career %>% filter(AB>500)
career_filtered
```

    ## # A tibble: 4,209 x 4
    ##    name                H    AB average
    ##    <chr>           <int> <int>   <dbl>
    ##  1 Hank_Aaron       3771 12364   0.305
    ##  2 Tommie_Aaron      216   944   0.229
    ##  3 Ed_Abbaticchio    772  3044   0.254
    ##  4 Fred_Abbott       107   513   0.209
    ##  5 Jeff_Abbott       157   596   0.263
    ##  6 Kurt_Abbott       523  2044   0.256
    ##  7 Brent_Abernathy   212   868   0.244
    ##  8 Shawn_Abner       191   840   0.227
    ##  9 Cal_Abrams        433  1611   0.269
    ## 10 Bobby_Abreu      2470  8480   0.291
    ## # … with 4,199 more rows
…
